
{
    "page": 1,
    "per_page": 15,
    "photos": [
        {
            "id": 2014773,
            "width": 6118,
            "height": 4079,
            "url": "https://www.pexels.com/photo/grayscale-photography-of-hands-waving-2014773/",
            "photographer": "Luis Quintero",
            "photographer_url": "https://www.pexels.com/@jibarofoto",
            "photographer_id": 447123,
            "avg_color": "#303030",
            "src": {
                "original": "https://images.pexels.com/photos/2014773/pexels-photo-2014773.jpeg",
                "large2x": "https://images.pexels.com/photos/2014773/pexels-photo-2014773.jpeg?auto=compress&cs=tinysrgb&dpr=2&h=650&w=940",
                "large": "https://images.pexels.com/photos/2014773/pexels-photo-2014773.jpeg?auto=compress&cs=tinysrgb&h=650&w=940",
                "medium": "https://images.pexels.com/photos/2014773/pexels-photo-2014773.jpeg?auto=compress&cs=tinysrgb&h=350",
                "small": "https://images.pexels.com/photos/2014773/pexels-photo-2014773.jpeg?auto=compress&cs=tinysrgb&h=130",
                "portrait": "https://images.pexels.com/photos/2014773/pexels-photo-2014773.jpeg?auto=compress&cs=tinysrgb&fit=crop&h=1200&w=800",
                "landscape": "https://images.pexels.com/photos/2014773/pexels-photo-2014773.jpeg?auto=compress&cs=tinysrgb&fit=crop&h=627&w=1200",
                "tiny": "https://images.pexels.com/photos/2014773/pexels-photo-2014773.jpeg?auto=compress&cs=tinysrgb&dpr=1&fit=crop&h=200&w=280"
            },
            "liked": false,
            "alt": "Black and white image of audience with hands raised, capturing concert energy."
        },
        {
            "id": 897817,
            "width": 5760,
            "height": 3840,
            "url": "https://www.pexels.com/photo/man-in-blue-and-brown-plaid-dress-shirt-touching-his-hair-897817/",
            "photographer": "Nathan Cowley",
            "photographer_url": "https://www.pexels.com/@mastercowley",
            "photographer_id": 205246,
            "avg_color": "#637C94",
            "src": {
                "original": "https://images.pexels.com/photos/897817/pexels-photo-897817.jpeg",
                "large2x": "https://images.pexels.com/photos/897817/pexels-photo-897817.jpeg?auto=compress&cs=tinysrgb&dpr=2&h=650&w=940",
                "large": "https://images.pexels.com/photos/897817/pexels-photo-897817.jpeg?auto=compress&cs=tinysrgb&h=650&w=940",
                "medium": "https://images.pexels.com/photos/897817/pexels-photo-897817.jpeg?auto=compress&cs=tinysrgb&h=350",
                "small": "https://images.pexels.com/photos/897817/pexels-photo-897817.jpeg?auto=compress&cs=tinysrgb&h=130",
                "portrait": "https://images.pexels.com/photos/897817/pexels-photo-897817.jpeg?auto=compress&cs=tinysrgb&fit=crop&h=1200&w=800",
                "landscape": "https://images.pexels.com/photos/897817/pexels-photo-897817.jpeg?auto=compress&cs=tinysrgb&fit=crop&h=627&w=1200",
                "tiny": "https://images.pexels.com/photos/897817/pexels-photo-897817.jpeg?auto=compress&cs=tinysrgb&dpr=1&fit=crop&h=200&w=280"
            },
            "liked": false,
            "alt": "A man in a plaid shirt sits by the water looking distressed, symbolizing stress."
        },
        {
            "id": 1097456,
            "width": 5999,
            "height": 3999,
            "url": "https://www.pexels.com/photo/person-wearing-red-hoodie-1097456/",
            "photographer": "Sebastiaan Stam",
            "photographer_url": "https://www.pexels.com/@sebastiaan9977",
            "photographer_id": 420975,
            "avg_color": "#0B0404",
            "src": {
                "original": "https://images.pexels.com/photos/1097456/pexels-photo-1097456.jpeg",
                "large2x": "https://images.pexels.com/photos/1097456/pexels-photo-1097456.jpeg?auto=compress&cs=tinysrgb&dpr=2&h=650&w=940",
                "large": "https://images.pexels.com/photos/1097456/pexels-photo-1097456.jpeg?auto=compress&cs=tinysrgb&h=650&w=940",
                "medium": "https://images.pexels.com/photos/1097456/pexels-photo-1097456.jpeg?auto=compress&cs=tinysrgb&h=350",
                "small": "https://images.pexels.com/photos/1097456/pexels-photo-1097456.jpeg?auto=compress&cs=tinysrgb&h=130",
                "portrait": "https://images.pexels.com/photos/1097456/pexels-photo-1097456.jpeg?auto=compress&cs=tinysrgb&fit=crop&h=1200&w=800",
                "landscape": "https://images.pexels.com/photos/1097456/pexels-photo-1097456.jpeg?auto=compress&cs=tinysrgb&fit=crop&h=627&w=1200",
                "tiny": "https://images.pexels.com/photos/1097456/pexels-photo-1097456.jpeg?auto=compress&cs=tinysrgb&dpr=1&fit=crop&h=200&w=280"
            },
            "liked": false,
            "alt": "A spooky illuminated mask figure with a red hoodie in a dark setting, perfect for Halloween themes."
        },
        {
            "id": 837358,
            "width": 6100,
            "height": 4067,
            "url": "https://www.pexels.com/photo/man-in-brown-coat-and-gray-backpack-posing-for-a-photo-837358/",
            "photographer": "Andrea Piacquadio",
            "photographer_url": "https://www.pexels.com/@olly",
            "photographer_id": 224453,
            "avg_color": "#988974",
            "src": {
                "original": "https://images.pexels.com/photos/837358/pexels-photo-837358.jpeg",
                "large2x": "https://images.pexels.com/photos/837358/pexels-photo-837358.jpeg?auto=compress&cs=tinysrgb&dpr=2&h=650&w=940",
                "large": "https://images.pexels.com/photos/837358/pexels-photo-837358.jpeg?auto=compress&cs=tinysrgb&h=650&w=940",
                "medium": "https://images.pexels.com/photos/837358/pexels-photo-837358.jpeg?auto=compress&cs=tinysrgb&h=350",
                "small": "https://images.pexels.com/photos/837358/pexels-photo-837358.jpeg?auto=compress&cs=tinysrgb&h=130",
                "portrait": "https://images.pexels.com/photos/837358/pexels-photo-837358.jpeg?auto=compress&cs=tinysrgb&fit=crop&h=1200&w=800",
                "landscape": "https://images.pexels.com/photos/837358/pexels-photo-837358.jpeg?auto=compress&cs=tinysrgb&fit=crop&h=627&w=1200",
                "tiny": "https://images.pexels.com/photos/837358/pexels-photo-837358.jpeg?auto=compress&cs=tinysrgb&dpr=1&fit=crop&h=200&w=280"
            },
            "liked": false,
            "alt": "A stylish man with a backpack boards a tram in bustling Budapest, Hungary, during the day."
        },
        {
            "id": 210661,
            "width": 3888,
            "height": 2592,
            "url": "https://www.pexels.com/photo/person-holding-blue-ballpoint-pen-writing-in-notebook-210661/",
            "photographer": "picjumbo.com",
            "photographer_url": "https://www.pexels.com/@picjumbo-com-55570",
            "photographer_id": 55570,
            "avg_color": "#8B8380",
            "src": {
                "original": "https://images.pexels.com/photos/210661/pexels-photo-210661.jpeg",
                "large2x": "https://images.pexels.com/photos/210661/pexels-photo-210661.jpeg?auto=compress&cs=tinysrgb&dpr=2&h=650&w=940",
                "large": "https://images.pexels.com/photos/210661/pexels-photo-210661.jpeg?auto=compress&cs=tinysrgb&h=650&w=940",
                "medium": "https://images.pexels.com/photos/210661/pexels-photo-210661.jpeg?auto=compress&cs=tinysrgb&h=350",
                "small": "https://images.pexels.com/photos/210661/pexels-photo-210661.jpeg?auto=compress&cs=tinysrgb&h=130",
                "portrait": "https://images.pexels.com/photos/210661/pexels-photo-210661.jpeg?auto=compress&cs=tinysrgb&fit=crop&h=1200&w=800",
                "landscape": "https://images.pexels.com/photos/210661/pexels-photo-210661.jpeg?auto=compress&cs=tinysrgb&fit=crop&h=627&w=1200",
                "tiny": "https://images.pexels.com/photos/210661/pexels-photo-210661.jpeg?auto=compress&cs=tinysrgb&dpr=1&fit=crop&h=200&w=280"
            },
            "liked": false,
            "alt": "Close-up of hand writing in notebook using a blue pen, focus on creativity."
        },
        {
            "id": 39866,
            "width": 4928,
            "height": 3264,
            "url": "https://www.pexels.com/photo/person-in-blue-denim-jacket-sitting-on-chair-while-writing-39866/",
            "photographer": "Pixabay",
            "photographer_url": "https://www.pexels.com/@pixabay",
            "photographer_id": 2659,
            "avg_color": "#56524C",
            "src": {
                "original": "https://images.pexels.com/photos/39866/entrepreneur-startup-start-up-man-39866.jpeg",
                "large2x": "https://images.pexels.com/photos/39866/entrepreneur-startup-start-up-man-39866.jpeg?auto=compress&cs=tinysrgb&dpr=2&h=650&w=940",
                "large": "https://images.pexels.com/photos/39866/entrepreneur-startup-start-up-man-39866.jpeg?auto=compress&cs=tinysrgb&h=650&w=940",
                "medium": "https://images.pexels.com/photos/39866/entrepreneur-startup-start-up-man-39866.jpeg?auto=compress&cs=tinysrgb&h=350",
                "small": "https://images.pexels.com/photos/39866/entrepreneur-startup-start-up-man-39866.jpeg?auto=compress&cs=tinysrgb&h=130",
                "portrait": "https://images.pexels.com/photos/39866/entrepreneur-startup-start-up-man-39866.jpeg?auto=compress&cs=tinysrgb&fit=crop&h=1200&w=800",
                "landscape": "https://images.pexels.com/photos/39866/entrepreneur-startup-start-up-man-39866.jpeg?auto=compress&cs=tinysrgb&fit=crop&h=627&w=1200",
                "tiny": "https://images.pexels.com/photos/39866/entrepreneur-startup-start-up-man-39866.jpeg?auto=compress&cs=tinysrgb&dpr=1&fit=crop&h=200&w=280"
            },
            "liked": false,
            "alt": "A young man in glasses writes in a notebook while sitting on a stylish couch indoors."
        },
        {
            "id": 699459,
            "width": 3024,
            "height": 4032,
            "url": "https://www.pexels.com/photo/turned-on-gray-laptop-computer-on-table-699459/",
            "photographer": "Flo Dahm",
            "photographer_url": "https://www.pexels.com/@flodahm",
            "photographer_id": 154317,
            "avg_color": "#AAA3A1",
            "src": {
                "original": "https://images.pexels.com/photos/699459/pexels-photo-699459.jpeg",
                "large2x": "https://images.pexels.com/photos/699459/pexels-photo-699459.jpeg?auto=compress&cs=tinysrgb&dpr=2&h=650&w=940",
                "large": "https://images.pexels.com/photos/699459/pexels-photo-699459.jpeg?auto=compress&cs=tinysrgb&h=650&w=940",
                "medium": "https://images.pexels.com/photos/699459/pexels-photo-699459.jpeg?auto=compress&cs=tinysrgb&h=350",
                "small": "https://images.pexels.com/photos/699459/pexels-photo-699459.jpeg?auto=compress&cs=tinysrgb&h=130",
                "portrait": "https://images.pexels.com/photos/699459/pexels-photo-699459.jpeg?auto=compress&cs=tinysrgb&fit=crop&h=1200&w=800",
                "landscape": "https://images.pexels.com/photos/699459/pexels-photo-699459.jpeg?auto=compress&cs=tinysrgb&fit=crop&h=627&w=1200",
                "tiny": "https://images.pexels.com/photos/699459/pexels-photo-699459.jpeg?auto=compress&cs=tinysrgb&dpr=1&fit=crop&h=200&w=280"
            },
            "liked": false,
            "alt": "A bright, modern workspace featuring laptops, a camera, and a drawing tablet in an indoor office."
        },
        {
            "id": 445109,
            "width": 7016,
            "height": 4405,
            "url": "https://www.pexels.com/photo/woman-holding-blue-smoke-flare-445109/",
            "photographer": "Trinity  Kubassek",
            "photographer_url": "https://www.pexels.com/@trinitykubassek",
            "photographer_id": 60607,
            "avg_color": "#4A8697",
            "src": {
                "original": "https://images.pexels.com/photos/445109/pexels-photo-445109.jpeg",
                "large2x": "https://images.pexels.com/photos/445109/pexels-photo-445109.jpeg?auto=compress&cs=tinysrgb&dpr=2&h=650&w=940",
                "large": "https://images.pexels.com/photos/445109/pexels-photo-445109.jpeg?auto=compress&cs=tinysrgb&h=650&w=940",
                "medium": "https://images.pexels.com/photos/445109/pexels-photo-445109.jpeg?auto=compress&cs=tinysrgb&h=350",
                "small": "https://images.pexels.com/photos/445109/pexels-photo-445109.jpeg?auto=compress&cs=tinysrgb&h=130",
                "portrait": "https://images.pexels.com/photos/445109/pexels-photo-445109.jpeg?auto=compress&cs=tinysrgb&fit=crop&h=1200&w=800",
                "landscape": "https://images.pexels.com/photos/445109/pexels-photo-445109.jpeg?auto=compress&cs=tinysrgb&fit=crop&h=627&w=1200",
                "tiny": "https://images.pexels.com/photos/445109/pexels-photo-445109.jpeg?auto=compress&cs=tinysrgb&dpr=1&fit=crop&h=200&w=280"
            },
            "liked": false,
            "alt": "A stylish woman surrounded by bright blue smoke outdoors, creating a dynamic fashion statement."
        },
        {
            "id": 240561,
            "width": 6016,
            "height": 4000,
            "url": "https://www.pexels.com/photo/aerial-view-of-fisherman-on-boat-240561/",
            "photographer": "fabien pasquet",
            "photographer_url": "https://www.pexels.com/@lecreusois",
            "photographer_id": 68145,
            "avg_color": "#33777A",
            "src": {
                "original": "https://images.pexels.com/photos/240561/pexels-photo-240561.jpeg",
                "large2x": "https://images.pexels.com/photos/240561/pexels-photo-240561.jpeg?auto=compress&cs=tinysrgb&dpr=2&h=650&w=940",
                "large": "https://images.pexels.com/photos/240561/pexels-photo-240561.jpeg?auto=compress&cs=tinysrgb&h=650&w=940",
                "medium": "https://images.pexels.com/photos/240561/pexels-photo-240561.jpeg?auto=compress&cs=tinysrgb&h=350",
                "small": "https://images.pexels.com/photos/240561/pexels-photo-240561.jpeg?auto=compress&cs=tinysrgb&h=130",
                "portrait": "https://images.pexels.com/photos/240561/pexels-photo-240561.jpeg?auto=compress&cs=tinysrgb&fit=crop&h=1200&w=800",
                "landscape": "https://images.pexels.com/photos/240561/pexels-photo-240561.jpeg?auto=compress&cs=tinysrgb&fit=crop&h=627&w=1200",
                "tiny": "https://images.pexels.com/photos/240561/pexels-photo-240561.jpeg?auto=compress&cs=tinysrgb&dpr=1&fit=crop&h=200&w=280"
            },
            "liked": false,
            "alt": "Top view of a red motorboat with fishermen navigating open turquoise waters."
        },
        {
            "id": 889545,
            "width": 4060,
            "height": 2284,
            "url": "https://www.pexels.com/photo/group-of-people-on-road-with-assorted-color-smokes-889545/",
            "photographer": "GEORGE DESIPRIS",
            "photographer_url": "https://www.pexels.com/@george-desipris",
            "photographer_id": 228078,
            "avg_color": "#55384F",
            "src": {
                "original": "https://images.pexels.com/photos/889545/pexels-photo-889545.jpeg",
                "large2x": "https://images.pexels.com/photos/889545/pexels-photo-889545.jpeg?auto=compress&cs=tinysrgb&dpr=2&h=650&w=940",
                "large": "https://images.pexels.com/photos/889545/pexels-photo-889545.jpeg?auto=compress&cs=tinysrgb&h=650&w=940",
                "medium": "https://images.pexels.com/photos/889545/pexels-photo-889545.jpeg?auto=compress&cs=tinysrgb&h=350",
                "small": "https://images.pexels.com/photos/889545/pexels-photo-889545.jpeg?auto=compress&cs=tinysrgb&h=130",
                "portrait": "https://images.pexels.com/photos/889545/pexels-photo-889545.jpeg?auto=compress&cs=tinysrgb&fit=crop&h=1200&w=800",
                "landscape": "https://images.pexels.com/photos/889545/pexels-photo-889545.jpeg?auto=compress&cs=tinysrgb&fit=crop&h=627&w=1200",
                "tiny": "https://images.pexels.com/photos/889545/pexels-photo-889545.jpeg?auto=compress&cs=tinysrgb&dpr=1&fit=crop&h=200&w=280"
            },
            "liked": false,
            "alt": "A lively group celebrating at night with color smoke bombs in a street festival."
        },
        {
            "id": 302743,
            "width": 4133,
            "height": 2755,
            "url": "https://www.pexels.com/photo/clear-glass-sphere-302743/",
            "photographer": "Pixabay",
            "photographer_url": "https://www.pexels.com/@pixabay",
            "photographer_id": 2659,
            "avg_color": "#554348",
            "src": {
                "original": "https://images.pexels.com/photos/302743/pexels-photo-302743.jpeg",
                "large2x": "https://images.pexels.com/photos/302743/pexels-photo-302743.jpeg?auto=compress&cs=tinysrgb&dpr=2&h=650&w=940",
                "large": "https://images.pexels.com/photos/302743/pexels-photo-302743.jpeg?auto=compress&cs=tinysrgb&h=650&w=940",
                "medium": "https://images.pexels.com/photos/302743/pexels-photo-302743.jpeg?auto=compress&cs=tinysrgb&h=350",
                "small": "https://images.pexels.com/photos/302743/pexels-photo-302743.jpeg?auto=compress&cs=tinysrgb&h=130",
                "portrait": "https://images.pexels.com/photos/302743/pexels-photo-302743.jpeg?auto=compress&cs=tinysrgb&fit=crop&h=1200&w=800",
                "landscape": "https://images.pexels.com/photos/302743/pexels-photo-302743.jpeg?auto=compress&cs=tinysrgb&fit=crop&h=627&w=1200",
                "tiny": "https://images.pexels.com/photos/302743/pexels-photo-302743.jpeg?auto=compress&cs=tinysrgb&dpr=1&fit=crop&h=200&w=280"
            },
            "liked": false,
            "alt": "Close-up shot of a frozen bubble with warm reflections resting on a snowy surface at twilight."
        },
        {
            "id": 1245055,
            "width": 5184,
            "height": 3456,
            "url": "https://www.pexels.com/photo/grayscale-photography-of-people-1245055/",
            "photographer": "Paweł L.",
            "photographer_url": "https://www.pexels.com/@pawel-l-435199",
            "photographer_id": 435199,
            "avg_color": "#7F7F7F",
            "src": {
                "original": "https://images.pexels.com/photos/1245055/pexels-photo-1245055.jpeg",
                "large2x": "https://images.pexels.com/photos/1245055/pexels-photo-1245055.jpeg?auto=compress&cs=tinysrgb&dpr=2&h=650&w=940",
                "large": "https://images.pexels.com/photos/1245055/pexels-photo-1245055.jpeg?auto=compress&cs=tinysrgb&h=650&w=940",
                "medium": "https://images.pexels.com/photos/1245055/pexels-photo-1245055.jpeg?auto=compress&cs=tinysrgb&h=350",
                "small": "https://images.pexels.com/photos/1245055/pexels-photo-1245055.jpeg?auto=compress&cs=tinysrgb&h=130",
                "portrait": "https://images.pexels.com/photos/1245055/pexels-photo-1245055.jpeg?auto=compress&cs=tinysrgb&fit=crop&h=1200&w=800",
                "landscape": "https://images.pexels.com/photos/1245055/pexels-photo-1245055.jpeg?auto=compress&cs=tinysrgb&fit=crop&h=627&w=1200",
                "tiny": "https://images.pexels.com/photos/1245055/pexels-photo-1245055.jpeg?auto=compress&cs=tinysrgb&dpr=1&fit=crop&h=200&w=280"
            },
            "liked": false,
            "alt": "A black and white photo capturing a busy street filled with people in Sopot, Poland during the day."
        },
        {
            "id": 267961,
            "width": 4956,
            "height": 3304,
            "url": "https://www.pexels.com/photo/man-wearing-white-full-face-motorcycle-helmet-267961/",
            "photographer": "Pixabay",
            "photographer_url": "https://www.pexels.com/@pixabay",
            "photographer_id": 2659,
            "avg_color": "#384A53",
            "src": {
                "original": "https://images.pexels.com/photos/267961/pexels-photo-267961.jpeg",
                "large2x": "https://images.pexels.com/photos/267961/pexels-photo-267961.jpeg?auto=compress&cs=tinysrgb&dpr=2&h=650&w=940",
                "large": "https://images.pexels.com/photos/267961/pexels-photo-267961.jpeg?auto=compress&cs=tinysrgb&h=650&w=940",
                "medium": "https://images.pexels.com/photos/267961/pexels-photo-267961.jpeg?auto=compress&cs=tinysrgb&h=350",
                "small": "https://images.pexels.com/photos/267961/pexels-photo-267961.jpeg?auto=compress&cs=tinysrgb&h=130",
                "portrait": "https://images.pexels.com/photos/267961/pexels-photo-267961.jpeg?auto=compress&cs=tinysrgb&fit=crop&h=1200&w=800",
                "landscape": "https://images.pexels.com/photos/267961/pexels-photo-267961.jpeg?auto=compress&cs=tinysrgb&fit=crop&h=627&w=1200",
                "tiny": "https://images.pexels.com/photos/267961/pexels-photo-267961.jpeg?auto=compress&cs=tinysrgb&dpr=1&fit=crop&h=200&w=280"
            },
            "liked": false,
            "alt": "A cosmonaut floats effortlessly in an artistic fashion amidst a dimly lit indoor space."
        },
        {
            "id": 1087735,
            "width": 4256,
            "height": 2532,
            "url": "https://www.pexels.com/photo/silhouette-of-man-standing-on-mountain-cliff-1087735/",
            "photographer": "Min An",
            "photographer_url": "https://www.pexels.com/@minan1398",
            "photographer_id": 206851,
            "avg_color": "#6E858B",
            "src": {
                "original": "https://images.pexels.com/photos/1087735/pexels-photo-1087735.jpeg",
                "large2x": "https://images.pexels.com/photos/1087735/pexels-photo-1087735.jpeg?auto=compress&cs=tinysrgb&dpr=2&h=650&w=940",
                "large": "https://images.pexels.com/photos/1087735/pexels-photo-1087735.jpeg?auto=compress&cs=tinysrgb&h=650&w=940",
                "medium": "https://images.pexels.com/photos/1087735/pexels-photo-1087735.jpeg?auto=compress&cs=tinysrgb&h=350",
                "small": "https://images.pexels.com/photos/1087735/pexels-photo-1087735.jpeg?auto=compress&cs=tinysrgb&h=130",
                "portrait": "https://images.pexels.com/photos/1087735/pexels-photo-1087735.jpeg?auto=compress&cs=tinysrgb&fit=crop&h=1200&w=800",
                "landscape": "https://images.pexels.com/photos/1087735/pexels-photo-1087735.jpeg?auto=compress&cs=tinysrgb&fit=crop&h=627&w=1200",
                "tiny": "https://images.pexels.com/photos/1087735/pexels-photo-1087735.jpeg?auto=compress&cs=tinysrgb&dpr=1&fit=crop&h=200&w=280"
            },
            "liked": false,
            "alt": "A lone traveler stands on a hilltop, gazing over a vast mountain landscape under a clear blue sky."
        },
        {
            "id": 746386,
            "width": 5000,
            "height": 2952,
            "url": "https://www.pexels.com/photo/silhouette-photography-of-person-standing-on-green-grass-in-front-of-mountains-during-golden-hour-746386/",
            "photographer": "Simon Migaj",
            "photographer_url": "https://www.pexels.com/@simonmigaj",
            "photographer_id": 233851,
            "avg_color": "#817869",
            "src": {
                "original": "https://images.pexels.com/photos/746386/pexels-photo-746386.jpeg",
                "large2x": "https://images.pexels.com/photos/746386/pexels-photo-746386.jpeg?auto=compress&cs=tinysrgb&dpr=2&h=650&w=940",
                "large": "https://images.pexels.com/photos/746386/pexels-photo-746386.jpeg?auto=compress&cs=tinysrgb&h=650&w=940",
                "medium": "https://images.pexels.com/photos/746386/pexels-photo-746386.jpeg?auto=compress&cs=tinysrgb&h=350",
                "small": "https://images.pexels.com/photos/746386/pexels-photo-746386.jpeg?auto=compress&cs=tinysrgb&h=130",
                "portrait": "https://images.pexels.com/photos/746386/pexels-photo-746386.jpeg?auto=compress&cs=tinysrgb&fit=crop&h=1200&w=800",
                "landscape": "https://images.pexels.com/photos/746386/pexels-photo-746386.jpeg?auto=compress&cs=tinysrgb&fit=crop&h=627&w=1200",
                "tiny": "https://images.pexels.com/photos/746386/pexels-photo-746386.jpeg?auto=compress&cs=tinysrgb&dpr=1&fit=crop&h=200&w=280"
            },
            "liked": false,
            "alt": "Silhouette of a person standing on a hill during sunrise in Cumbria, England with scenic mountain views."
        }
    ],
    "total_results": 8000,
    "next_page": "https://api.pexels.com/v1/search?page=2&per_page=15&query=people"
}
